healthyr_summary – HDS MSc - Module 3 - PreProcessing/EDA
…
summary_data2 <- 
  gbd_full %>% 
  group_by(year, cause) %>% 
  summarise(total_per_cause = sum(deaths_millions))

`summarise()` has grouped output by 'year'. You can override using the
`.groups` argument.

summary_data2

# A tibble: 21 × 3
# Groups:   year [7]
    year cause                     total_per_cause
   <dbl> <chr>                               <dbl>
 1  1990 Communicable diseases               15.4 
 2  1990 Injuries                             4.25
 3  1990 Non-communicable diseases           26.7 
 4  1995 Communicable diseases               15.1 
 5  1995 Injuries                             4.53
 6  1995 Non-communicable diseases           29.3 
 7  2000 Communicable diseases               14.8 
 8  2000 Injuries                             4.56
 9  2000 Non-communicable diseases           31.0 
10  2005 Communicable diseases               13.9 
# ℹ 11 more rows
…
